[{"page":1,"pages":352,"per_page":50,"total":17556,"sourceid":"2","lastupdated":"2026-02-24"},[{"indicator":{"id":"SL.FAM.WORK.FE.ZS","value":"Contributing family workers, female (% of female employment) (modeled ILO estimate)"},"country":{"id":"ZH","value":"Africa Eastern and Southern"},"countryiso3code":"AFE","date":"2025","value":26.4472554202908,"unit":"","obs_status":"","decimal":1},{"indicator":{"id":"SL.FAM.WORK.FE.ZS","value":"Contributing family workers, female (% of female employment) (modeled ILO estimate)"},"country":{"id":"ZH","value":"Africa Eastern and Southern"},"countryiso3code":"AFE","date":"2024","value":26.642782945568,"unit":"","obs_status":"","decimal":1},{"indicator":{"id":"SL.FAM.WORK.FE.ZS","value":"Contributing family workers, female (% of female employment) (modeled ILO estimate)"},"country":{"id":"ZH","value":"Africa Eastern and Southern"},"countryiso3code":"AFE","date":"2023","value":27.1771573883268,"unit":"","obs_status":"","decimal":1},{"indicator":{"id":"SL.FAM.WORK.FE.ZS","value":"Contributing family workers, female (% of female employment) (modeled ILO estimate)"},"country":{"id":"ZH","value":"Africa Eastern and Southern"},"countryiso3code":"AFE","date":"2022","value":27.5297771642337,"unit":"","obs_status":"","decimal":1},{"indicator":{"id":"SL.FAM.WORK.FE.ZS","value":"Contributing family workers, female (% of female employment) (modeled ILO estimate)"},"country":{"id":"ZH","value":"Africa Eastern and Southern"},"countryiso3code":"AFE","date":"2021","value":27.823618264773,"unit":"","obs_status":"","decimal":1},{"indicator":{"id":"SL.FAM.WORK.FE.ZS","value":"Contributing family workers, female (% of female employment) (modeled ILO estimate)"},"country":{"id":"ZH","value":"Africa Eastern and Southern"},"countryiso3code":"AFE","date":"2020","value":28.2514805639382,"unit":"","obs_status":"","decimal":1},{"indicator":{"id":"SL.FAM.WORK.FE.ZS","value":"Contributing family workers, female (% of female employment) (modeled ILO estimate)"},"country":{"id":"ZH","value":"Africa Eastern and Southern"},"countryiso3code":"AFE","date":"2019","value":29.1423986665136,"unit":"","obs_status":"","decimal":1},{"indicator":{"id":"SL.FAM.WORK.FE.ZS","value":"Contributing family workers, female (% of female employment) (modeled ILO estimate)"},"country":{"id":"ZH","value":"Africa Eastern and Southern"},"countryiso3code":"AFE","date":"2018","value":30.0172966238323,"unit":"","obs_status":"","decimal":1},{"indicator":{"id":"SL.FAM.WORK.FE.ZS","value":"Contributing family workers, female (% of female employment) (modeled ILO estimate)"},"country":{"id":"ZH","value":"Africa Eastern and Southern"},"countryiso3code":"AFE","date":"2017","value":30.9215026487697,"unit":"","obs_status":"","decimal":1},{"indicator":{"id":"SL.FAM.WORK.FE.ZS","value":"Contributing family workers, female (% of female employment) (modeled ILO estimate)"},"country":{"id":"ZH","value":"Africa Eastern and Southern"},"countryiso3code":"AFE","date":"2016","value":31.7734797171546,"unit":"","obs_status":"","decimal":1},{"indicator":{"id":"SL.FAM.WORK.FE.ZS","value":"Contributing family workers, female (% of female employment) (modeled ILO estimate)"},"country":{"id":"ZH","value":"Africa Eastern and Southern"},"countryiso3code":"AFE","date":"2015","value":32.5491831710439,"unit":"","obs_status":"","decimal":1},{"indicator":{"id":"SL.FAM.WORK.FE.ZS","value":"Contributing family workers, female (% of female employment) (modeled ILO estimate)"},"country":{"id":"ZH","value":"Africa Eastern and Southern"},"countryiso3code":"AFE","date":"2014","value":33.4576377437811,"unit":"","obs_status":"","decimal":1},{"indicator":{"id":"SL.FAM.WORK.FE.ZS","value":"Contributing family workers, female (% of female employment) (modeled ILO estimate)"},"country":{"id":"ZH","value":"Africa Eastern and Southern"},"countryiso3code":"AFE","date":"2013","value":34.2697341783554,"unit":"","obs_status":"","decimal":1},{"indicator":{"id":"SL.FAM.WORK.FE.ZS","value":"Contributing family workers, female (% of female employment) (modeled ILO estimate)"},"country":{"id":"ZH","value":"Africa Eastern and Southern"},"countryiso3code":"AFE","date":"2012","value":35.3197950672264,"unit":"","obs_status":"","decimal":1},{"indicator":{"id":"SL.FAM.WORK.FE.ZS","value":"Contributing family workers, female (% of female employment) (modeled ILO estimate)"},"country":{"id":"ZH","value":"Africa Eastern and Southern"},"countryiso3code":"AFE","date":"2011","value":35.4049120566206,"unit":"","obs_status":"","decimal":1},{"indicator":{"id":"SL.FAM.WORK.FE.ZS","value":"Contributing family workers, female (% of female employment) (modeled ILO estimate)"},"country":{"id":"ZH","value":"Africa Eastern and Southern"},"countryiso3code":"AFE","date":"2010","value":35.8499733269054,"unit":"","obs_status":"","decimal":1},{"indicator":{"id":"SL.FAM.WORK.FE.ZS","value":"Contributing family workers, female (% of female employment) (modeled ILO estimate)"},"country":{"id":"ZH","value":"Africa Eastern and Southern"},"countryiso3code":"AFE","date":"2009","value":36.0186421880377,"unit":"","obs_status":"","decimal":1},{"indicator":{"id":"SL.FAM.WORK.FE.ZS","value":"Contributing family workers, female (% of female employment) (modeled ILO estimate)"},"country":{"id":"ZH","value":"Africa Eastern and Southern"},"countryiso3code":"AFE","date":"2008","value":36.1840780848871,"unit":"","obs_status":"","decimal":1},{"indicator":{"id":"SL.FAM.WORK.FE.ZS","value":"Contributing family workers, female (% of female employment) (modeled ILO estimate)"},"country":{"id":"ZH","value":"Africa Eastern and Southern"},"countryiso3code":"AFE","date":"2007","value":36.4800975671767,"unit":"","obs_status":"","decimal":1},{"indicator":{"id":"SL.FAM.WORK.FE.ZS","value":"Contributing family workers, female (% of female employment) (modeled ILO estimate)"},"country":{"id":"ZH","value":"Africa Eastern and Southern"},"countryiso3code":"AFE","date":"2006","value":36.804097170598,"unit":"","obs_status":"","decimal":1},{"indicator":{"id":"SL.FAM.WORK.FE.ZS","value":"Contributing family workers, female (% of female employment) (modeled ILO estimate)"},"country":{"id":"ZH","value":"Africa Eastern and Southern"},"countryiso3code":"AFE","date":"2005","value":37.0993156468628,"unit":"","obs_status":"","decimal":1},{"indicator":{"id":"SL.FAM.WORK.FE.ZS","value":"Contributing family workers, female (% of female employment) (modeled ILO estimate)"},"country":{"id":"ZH","value":"Africa Eastern and Southern"},"countryiso3code":"AFE","date":"2004","value":37.0475928394739,"unit":"","obs_status":"","decimal":1},{"indicator":{"id":"SL.FAM.WORK.FE.ZS","value":"Contributing family workers, female (% of female employment) (modeled ILO estimate)"},"country":{"id":"ZH","value":"Africa Eastern and Southern"},"countryiso3code":"AFE","date":"2003","value":37.0014802348584,"unit":"","obs_status":"","decimal":1},{"indicator":{"id":"SL.FAM.WORK.FE.ZS","value":"Contributing family workers, female (% of female employment) (modeled ILO estimate)"},"country":{"id":"ZH","value":"Africa Eastern and Southern"},"countryiso3code":"AFE","date":"2002","value":36.9317709119063,"unit":"","obs_status":"","decimal":1},{"indicator":{"id":"SL.FAM.WORK.FE.ZS","value":"Contributing family workers, female (% of female employment) (modeled ILO estimate)"},"country":{"id":"ZH","value":"Africa Eastern and Southern"},"countryiso3code":"AFE","date":"2001","value":36.87403001465,"unit":"","obs_status":"","decimal":1},{"indicator":{"id":"SL.FAM.WORK.FE.ZS","value":"Contributing family workers, female (% of female employment) (modeled ILO estimate)"},"country":{"id":"ZH","value":"Africa Eastern and Southern"},"countryiso3code":"AFE","date":"2000","value":36.6759679131085,"unit":"","obs_status":"","decimal":1},{"indicator":{"id":"SL.FAM.WORK.FE.ZS","value":"Contributing family workers, female (% of female employment) (modeled ILO estimate)"},"country":{"id":"ZH","value":"Africa Eastern and Southern"},"countryiso3code":"AFE","date":"1999","value":36.5728311285287,"unit":"","obs_status":"","decimal":1},{"indicator":{"id":"SL.FAM.WORK.FE.ZS","value":"Contributing family workers, female (% of female employment) (modeled ILO estimate)"},"country":{"id":"ZH","value":"Africa Eastern and Southern"},"countryiso3code":"AFE","date":"1998","value":36.6651871692991,"unit":"","obs_status":"","decimal":1},{"indicator":{"id":"SL.FAM.WORK.FE.ZS","value":"Contributing family workers, female (% of female employment) (modeled ILO estimate)"},"country":{"id":"ZH","value":"Africa Eastern and Southern"},"countryiso3code":"AFE","date":"1997","value":36.7550802552273,"unit":"","obs_status":"","decimal":1},{"indicator":{"id":"SL.FAM.WORK.FE.ZS","value":"Contributing family workers, female (% of female employment) (modeled ILO estimate)"},"country":{"id":"ZH","value":"Africa Eastern and Southern"},"countryiso3code":"AFE","date":"1996","value":36.8732935400043,"unit":"","obs_status":"","decimal":1},{"indicator":{"id":"SL.FAM.WORK.FE.ZS","value":"Contributing family workers, female (% of female employment) (modeled ILO estimate)"},"country":{"id":"ZH","value":"Africa Eastern and Southern"},"countryiso3code":"AFE","date":"1995","value":37.0396671905479,"unit":"","obs_status":"","decimal":1},{"indicator":{"id":"SL.FAM.WORK.FE.ZS","value":"Contributing family workers, female (% of female employment) (modeled ILO estimate)"},"country":{"id":"ZH","value":"Africa Eastern and Southern"},"countryiso3code":"AFE","date":"1994","value":36.9787580596716,"unit":"","obs_status":"","decimal":1},{"indicator":{"id":"SL.FAM.WORK.FE.ZS","value":"Contributing family workers, female (% of female employment) (modeled ILO estimate)"},"country":{"id":"ZH","value":"Africa Eastern and Southern"},"countryiso3code":"AFE","date":"1993","value":36.8564229933429,"unit":"","obs_status":"","decimal":1},{"indicator":{"id":"SL.FAM.WORK.FE.ZS","value":"Contributing family workers, female (% of female employment) (modeled ILO estimate)"},"country":{"id":"ZH","value":"Africa Eastern and Southern"},"countryiso3code":"AFE","date":"1992","value":36.8738237397909,"unit":"","obs_status":"","decimal":1},{"indicator":{"id":"SL.FAM.WORK.FE.ZS","value":"Contributing family workers, female (% of female employment) (modeled ILO estimate)"},"country":{"id":"ZH","value":"Africa Eastern and Southern"},"countryiso3code":"AFE","date":"1991","value":36.8014902616216,"unit":"","obs_status":"","decimal":1},{"indicator":{"id":"SL.FAM.WORK.FE.ZS","value":"Contributing family workers, female (% of female employment) (modeled ILO estimate)"},"country":{"id":"ZH","value":"Africa Eastern and Southern"},"countryiso3code":"AFE","date":"1990","value":null,"unit":"","obs_status":"","decimal":1},{"indicator":{"id":"SL.FAM.WORK.FE.ZS","value":"Contributing family workers, female (% of female employment) (modeled ILO estimate)"},"country":{"id":"ZH","value":"Africa Eastern and Southern"},"countryiso3code":"AFE","date":"1989","value":null,"unit":"","obs_status":"","decimal":1},{"indicator":{"id":"SL.FAM.WORK.FE.ZS","value":"Contributing family workers, female (% of female employment) (modeled ILO estimate)"},"country":{"id":"ZH","value":"Africa Eastern and Southern"},"countryiso3code":"AFE","date":"1988","value":null,"unit":"","obs_status":"","decimal":1},{"indicator":{"id":"SL.FAM.WORK.FE.ZS","value":"Contributing family workers, female (% of female employment) (modeled ILO estimate)"},"country":{"id":"ZH","value":"Africa Eastern and Southern"},"countryiso3code":"AFE","date":"1987","value":null,"unit":"","obs_status":"","decimal":1},{"indicator":{"id":"SL.FAM.WORK.FE.ZS","value":"Contributing family workers, female (% of female employment) (modeled ILO estimate)"},"country":{"id":"ZH","value":"Africa Eastern and Southern"},"countryiso3code":"AFE","date":"1986","value":null,"unit":"","obs_status":"","decimal":1},{"indicator":{"id":"SL.FAM.WORK.FE.ZS","value":"Contributing family workers, female (% of female employment) (modeled ILO estimate)"},"country":{"id":"ZH","value":"Africa Eastern and Southern"},"countryiso3code":"AFE","date":"1985","value":null,"unit":"","obs_status":"","decimal":1},{"indicator":{"id":"SL.FAM.WORK.FE.ZS","value":"Contributing family workers, female (% of female employment) (modeled ILO estimate)"},"country":{"id":"ZH","value":"Africa Eastern and Southern"},"countryiso3code":"AFE","date":"1984","value":null,"unit":"","obs_status":"","decimal":1},{"indicator":{"id":"SL.FAM.WORK.FE.ZS","value":"Contributing family workers, female (% of female employment) (modeled ILO estimate)"},"country":{"id":"ZH","value":"Africa Eastern and Southern"},"countryiso3code":"AFE","date":"1983","value":null,"unit":"","obs_status":"","decimal":1},{"indicator":{"id":"SL.FAM.WORK.FE.ZS","value":"Contributing family workers, female (% of female employment) (modeled ILO estimate)"},"country":{"id":"ZH","value":"Africa Eastern and Southern"},"countryiso3code":"AFE","date":"1982","value":null,"unit":"","obs_status":"","decimal":1},{"indicator":{"id":"SL.FAM.WORK.FE.ZS","value":"Contributing family workers, female (% of female employment) (modeled ILO estimate)"},"country":{"id":"ZH","value":"Africa Eastern and Southern"},"countryiso3code":"AFE","date":"1981","value":null,"unit":"","obs_status":"","decimal":1},{"indicator":{"id":"SL.FAM.WORK.FE.ZS","value":"Contributing family workers, female (% of female employment) (modeled ILO estimate)"},"country":{"id":"ZH","value":"Africa Eastern and Southern"},"countryiso3code":"AFE","date":"1980","value":null,"unit":"","obs_status":"","decimal":1},{"indicator":{"id":"SL.FAM.WORK.FE.ZS","value":"Contributing family workers, female (% of female employment) (modeled ILO estimate)"},"country":{"id":"ZH","value":"Africa Eastern and Southern"},"countryiso3code":"AFE","date":"1979","value":null,"unit":"","obs_status":"","decimal":1},{"indicator":{"id":"SL.FAM.WORK.FE.ZS","value":"Contributing family workers, female (% of female employment) (modeled ILO estimate)"},"country":{"id":"ZH","value":"Africa Eastern and Southern"},"countryiso3code":"AFE","date":"1978","value":null,"unit":"","obs_status":"","decimal":1},{"indicator":{"id":"SL.FAM.WORK.FE.ZS","value":"Contributing family workers, female (% of female employment) (modeled ILO estimate)"},"country":{"id":"ZH","value":"Africa Eastern and Southern"},"countryiso3code":"AFE","date":"1977","value":null,"unit":"","obs_status":"","decimal":1},{"indicator":{"id":"SL.FAM.WORK.FE.ZS","value":"Contributing family workers, female (% of female employment) (modeled ILO estimate)"},"country":{"id":"ZH","value":"Africa Eastern and Southern"},"countryiso3code":"AFE","date":"1976","value":null,"unit":"","obs_status":"","decimal":1}]]
